{
        "pages": [
            {
                "pageId": "invoiceInfo",
                "serviceUrl": "invoice/lookup",
                "title": "Invoice Information",
                "fields": [
                    {
                        "name": "logo",
                        "type": "img",
                        "src": "assets/1536799055904.png"
                    },
                    {
                      "name": "header",
                      "fields": [
                        {
                            "name": "submit",
                            "title": "Submit",
                            "type": "link",
                            "href": "https://at.rebatepromotions.com/#/home"
                        },
                        {
                            "name": "track",
                            "title": "Track",
                            "type": "link",
                            "href": "https://at.rebatepromotions.com/#/tracker"
                        },
                        {
                            "name": "faq",
                            "title": "FAQ",
                            "type": "link",
                            "href": "https://at.rebatepromotions.com/#/faqs"
                        },
                        {
                            "name": "contact",
                            "title": "Contact Us",
                            "type": "link",
                            "href": "https://at.rebatepromotions.com/#/contact"
                        }
                    ]
                },
                {
                    "name": "banner",
                    "type": "img",
                    "src": "assets/banner.png"
                },
                {
                  "name": "footer",
                  "title": "© 2020 Reinalt Thomas",
                  "fields": [
                        {
                            "name": "legal",
                            "title": "Legal",
                            "type": "link",
                            "href": "#"
                        },
                        {
                            "name": "privacy",
                            "title": "Privacy Policy",
                            "type": "link",
                            "href": "#"
                        },
                        {
                            "name": "faq",
                            "title": "FAQ",
                            "type": "link",
                            "href": "https://at.rebatepromotions.com/#/faqs"
                        },
                        {
                            "name": "contact",
                            "title": "Contact Us",
                            "type": "link",
                            "href": "https://at.rebatepromotions.com/#/contact"
                        }
                    ]
                },
                {
                  "name": "submission",
                  "serviceUrl": "validateSubmission",
                  "fields": [
                        {
                            "name": "txtSubmit",
                            "title": "Welcome to the America's Tire Rebate Center. Enter your offer code and purchase date to begin your submission.<br /><br />Click <a href='https://www.americastire.com/promotions' target='_blank'>here</a> to find current rebate offers.",
                            "type": "content"
                        },
                        {
                            "name": "lblSubmit",
                            "title": "Enter offer and invoice date.",
                            "type": "heading"
                        },
                        {
                            "name": "offer",
                            "title": "Offer", 
                            "type": "string",
                            "required": true
                        },
                        {
                            "name": "invoiceDate",
                            "title": "Invoice Date",
                            "type": "date",
                            "required": true
                        },
                        {
                            "name": "btnSubmit",
                            "title": "Continue >",
                            "type": "button"
                        }
                    ]
                }
            ]
}